{
  "comment"       : "editable description",
  "version"       : 20210402,
  "filter_content": [
    {
      "name": "gl_oom",
      "tag" : ["com.instagram.android", "com.facebook.katana", "com.facebook.orca", "com.facebook.pages.app", "com.excean.gspace"]
    },
    {
      "name": "brk_s2w",
      "tag" : [
        "com.autonavi.minimap", "com.autonavi.amapauto", "cn.bus365.wyc.drivergd", "cn.hznetroute.AAdriver",
        "com.eamobile.nbajam_na_wf", "com.tuotuo.driver", "com.keubano.zhdz", "com.jsyc.driver", "net.untrip.app.lczcd",
        "com.CharmingAgencys.nearme.gamecenter", "com.frontline.DesertEscape.nearme.gamecenter", "com.zsfz.zsjmnjs.nearme.gamecenter",
        "com.yx", "com.smile.gifmaker"
      ]
    },
    {
      "name": "ui_first_black",
      "tag" : [
        "com.icbc.im", "com.bill99.kuaiyishua", "com.andromeda.androbench2", "com.tencent.tmgp.sgame", "com.tencent.tmgp.pubgmhd"
      ]
	},
    {
      "name": "gl_thread_ux",
      "tag" : [
        "com.coloros.gallery3d", "com.smile.gifmaker", "com.autonavi.minimap", "com.google.android.apps.maps", "com.snapchat.android", "com.tencent.mobileqq", "com.oppo.camera"
      ]
    },
    {
      "name": "gl_thread_ux",
      "tag" : [
        "com.coloros.gallery3d"
      ]
    }
  ]
}
